{
  "PlanningManagerProductData" : {
    "_id" : "wm-PlanningManagerProductData-wm.LiveVariable-1505311988063",
    "name" : "PlanningManagerProductData",
    "owner" : "Page",
    "category" : "wm.LiveVariable",
    "dataBinding" : [ {
      "target" : "prodId",
      "value" : "bind:pageParams.ProdID",
      "type" : "number"
    } ],
    "operation" : "read",
    "dataSet" : [ ],
    "type" : "Product",
    "isList" : true,
    "saveInPhonegap" : false,
    "maxResults" : 20,
    "designMaxResults" : 10,
    "inFlightBehavior" : "executeLast",
    "startUpdate" : true,
    "autoUpdate" : true,
    "transformationRequired" : false,
    "liveSource" : "PlanningManager",
    "ignoreCase" : true,
    "matchMode" : "start",
    "orderBy" : "prodId asc",
    "propertiesMap" : {
      "columns" : [ {
        "fieldName" : "program",
        "type" : "integer",
        "fullyQualifiedType" : "integer",
        "columnName" : "PROG_ID",
        "isPrimaryKey" : false,
        "notNull" : false,
        "length" : 0,
        "precision" : 10,
        "generator" : "assigned",
        "isRelated" : true,
        "defaultValue" : "",
        "relatedTableName" : "Program",
        "relatedEntityName" : "Program",
        "relatedColumnName" : "progId",
        "relatedFieldName" : "program.id",
        "isList" : false,
        "targetTable" : "Program",
        "scale" : 0,
        "columns" : [ {
          "fieldName" : "id",
          "type" : "integer",
          "fullyQualifiedType" : "integer",
          "columnName" : "ID",
          "isPrimaryKey" : true,
          "notNull" : true,
          "length" : 0,
          "precision" : 10,
          "generator" : "identity",
          "isRelated" : false,
          "defaultValue" : "",
          "scale" : 0
        }, {
          "fieldName" : "name",
          "type" : "string",
          "fullyQualifiedType" : "string",
          "columnName" : "NAME",
          "isPrimaryKey" : false,
          "notNull" : false,
          "length" : 255,
          "precision" : 0,
          "generator" : "assigned",
          "isRelated" : false,
          "defaultValue" : "",
          "scale" : 0
        }, {
          "fieldName" : "progCode",
          "type" : "string",
          "fullyQualifiedType" : "string",
          "columnName" : "PROG_CODE",
          "isPrimaryKey" : false,
          "notNull" : false,
          "length" : 20,
          "precision" : 0,
          "generator" : "assigned",
          "isRelated" : false,
          "defaultValue" : "",
          "scale" : 0
        } ]
      }, {
        "fieldName" : "prodId",
        "type" : "integer",
        "fullyQualifiedType" : "integer",
        "columnName" : "PROD_ID",
        "isPrimaryKey" : true,
        "notNull" : true,
        "length" : 0,
        "precision" : 10,
        "generator" : "identity",
        "isRelated" : false,
        "defaultValue" : "",
        "scale" : 0
      }, {
        "fieldName" : "name",
        "type" : "string",
        "fullyQualifiedType" : "string",
        "columnName" : "NAME",
        "isPrimaryKey" : false,
        "notNull" : false,
        "length" : 100,
        "precision" : 0,
        "generator" : "assigned",
        "isRelated" : false,
        "defaultValue" : "",
        "scale" : 0
      }, {
        "fieldName" : "unitMeas",
        "type" : "string",
        "fullyQualifiedType" : "string",
        "columnName" : "UNIT_MEAS",
        "isPrimaryKey" : false,
        "notNull" : false,
        "length" : 20,
        "precision" : 0,
        "generator" : "assigned",
        "isRelated" : false,
        "defaultValue" : "",
        "scale" : 0
      }, {
        "fieldName" : "prodCode",
        "type" : "string",
        "fullyQualifiedType" : "string",
        "columnName" : "PROD_CODE",
        "isPrimaryKey" : false,
        "notNull" : false,
        "length" : 20,
        "precision" : 0,
        "generator" : "assigned",
        "isRelated" : false,
        "defaultValue" : "",
        "scale" : 0
      } ],
      "entityName" : "Product",
      "fullyQualifiedName" : "com.planning_manager.planningmanager.Product",
      "tableType" : "TABLE",
      "primaryFields" : [ "prodId" ]
    },
    "isDefault" : true,
    "bindCount" : 2,
    "tableName" : "PRODUCT",
    "tableType" : "TABLE",
    "properties" : [ "program" ],
    "relatedTables" : [ {
      "columnName" : "program",
      "relationName" : "program",
      "type" : "Program",
      "watchOn" : "PlanningManagerProgramData",
      "package" : "com.planning_manager.planningmanager.Product"
    } ],
    "filterFields" : { },
    "package" : "com.planning_manager.planningmanager.Product"
  },
  "ProgramId" : {
    "_id" : "wm-ProgramId-wm.LiveVariable-1505312106715",
    "name" : "ProgramId",
    "owner" : "Page",
    "category" : "wm.LiveVariable",
    "dataBinding" : [ ],
    "operation" : "read",
    "dataSet" : [ ],
    "type" : "Program",
    "isList" : false,
    "saveInPhonegap" : false,
    "maxResults" : 20,
    "designMaxResults" : 10,
    "inFlightBehavior" : "executeLast",
    "startUpdate" : true,
    "autoUpdate" : true,
    "transformationRequired" : false,
    "liveSource" : "PlanningManager",
    "ignoreCase" : true,
    "matchMode" : "start",
    "orderBy" : "id asc",
    "propertiesMap" : {
      "columns" : [ {
        "fieldName" : "id",
        "type" : "integer",
        "fullyQualifiedType" : "integer",
        "columnName" : "ID",
        "isPrimaryKey" : true,
        "notNull" : true,
        "length" : 0,
        "precision" : 10,
        "generator" : "identity",
        "isRelated" : false,
        "defaultValue" : "",
        "scale" : 0
      }, {
        "fieldName" : "name",
        "type" : "string",
        "fullyQualifiedType" : "string",
        "columnName" : "NAME",
        "isPrimaryKey" : false,
        "notNull" : false,
        "length" : 255,
        "precision" : 0,
        "generator" : "assigned",
        "isRelated" : false,
        "defaultValue" : "",
        "scale" : 0
      }, {
        "fieldName" : "progCode",
        "type" : "string",
        "fullyQualifiedType" : "string",
        "columnName" : "PROG_CODE",
        "isPrimaryKey" : false,
        "notNull" : false,
        "length" : 20,
        "precision" : 0,
        "generator" : "assigned",
        "isRelated" : false,
        "defaultValue" : "",
        "scale" : 0
      } ],
      "entityName" : "Program",
      "fullyQualifiedName" : "com.planning_manager.planningmanager.Program",
      "tableType" : "TABLE",
      "primaryFields" : [ "id" ]
    },
    "bindCount" : 1,
    "tableName" : "Program",
    "tableType" : "TABLE",
    "properties" : [ ],
    "relatedTables" : [ ],
    "filterFields" : { },
    "package" : "com.planning_manager.planningmanager.Program"
  },
  "Programs" : {
    "_id" : "wm-Programs-wm.LiveVariable-1505312140731",
    "name" : "Programs",
    "owner" : "Page",
    "category" : "wm.LiveVariable",
    "dataBinding" : [ ],
    "operation" : "read",
    "dataSet" : [ ],
    "type" : "Program",
    "isList" : false,
    "saveInPhonegap" : false,
    "maxResults" : 20,
    "designMaxResults" : 10,
    "inFlightBehavior" : "executeLast",
    "startUpdate" : true,
    "autoUpdate" : true,
    "transformationRequired" : false,
    "liveSource" : "PlanningManager",
    "ignoreCase" : true,
    "matchMode" : "start",
    "orderBy" : "id asc",
    "propertiesMap" : {
      "columns" : [ {
        "fieldName" : "id",
        "type" : "integer",
        "fullyQualifiedType" : "integer",
        "columnName" : "ID",
        "isPrimaryKey" : true,
        "notNull" : true,
        "length" : 0,
        "precision" : 10,
        "generator" : "identity",
        "isRelated" : false,
        "defaultValue" : "",
        "scale" : 0
      }, {
        "fieldName" : "name",
        "type" : "string",
        "fullyQualifiedType" : "string",
        "columnName" : "NAME",
        "isPrimaryKey" : false,
        "notNull" : false,
        "length" : 255,
        "precision" : 0,
        "generator" : "assigned",
        "isRelated" : false,
        "defaultValue" : "",
        "scale" : 0
      }, {
        "fieldName" : "progCode",
        "type" : "string",
        "fullyQualifiedType" : "string",
        "columnName" : "PROG_CODE",
        "isPrimaryKey" : false,
        "notNull" : false,
        "length" : 20,
        "precision" : 0,
        "generator" : "assigned",
        "isRelated" : false,
        "defaultValue" : "",
        "scale" : 0
      } ],
      "entityName" : "Program",
      "fullyQualifiedName" : "com.planning_manager.planningmanager.Program",
      "tableType" : "TABLE",
      "primaryFields" : [ "id" ]
    },
    "bindCount" : 1,
    "tableName" : "Program",
    "tableType" : "TABLE",
    "properties" : [ ],
    "relatedTables" : [ ],
    "filterFields" : { },
    "package" : "com.planning_manager.planningmanager.Program"
  }
}